<?xml version="1.0" encoding="UTF-8"?>
<robot xmlns:xacro="http://ros.org/wiki/xacro" name="table">

  <xacro:macro name="table" params="table_name h w d">
    <link name="${table_name}_table_link">
      <inertial>
	<origin xyz="0 0 0" rpy="0 0 0"/>
	<mass value="200"/>
	<inertia ixx="0.1"  ixy="0"  ixz="0" iyy="0.1" iyz="0" izz="0.1" />
      </inertial>
      <visual>
	<origin xyz="0 0 0" rpy="0 0 0" />
	<geometry>
	  <box size="${d} ${w} ${h}"/>
	</geometry>
	<material name="table_color">
	  <color rgba="${210/255} ${170/255} ${120/255} 1.0"/>
	</material>
      </visual>
      <collision>
	<origin xyz="0 0 0" rpy="0 0 0" />
	<geometry>
	  <box size="${d} ${w} ${h}"/>
	</geometry>
      </collision>
    </link>
    
    <gazebo reference="${table_name}_table_link">
      <material>Gazebo/DarkGrey</material>
    </gazebo>
  </xacro:macro>

</robot>
